fir/fir.vcd
$date
   Tue Oct 24 13:22:55 2023
$end
$version
  2022.1
$end
$timescale
  1ps
$end
$scope module fir_tb $end
$var wire 1 ! awready $end
$var wire 1 " wready $end
$var reg 1 # awvalid $end
$var reg 12 $ awaddr [11:0] $end
$var reg 1 % wvalid $end
$var reg 32 & wdata [31:0] $end
$var wire 1 ' arready $end
$var reg 1 ( rready $end
$var reg 1 ) arvalid $end
$var reg 12 * araddr [11:0] $end
$var wire 1 + rvalid $end
$var wire 32 , rdata [31:0] $end
$var reg 1 - ss_tvalid $end
$var reg 32 . ss_tdata [31:0] $end
$var reg 1 / ss_tlast $end
$var wire 1 0 ss_tready $end
$var reg 1 1 sm_tready $end
$var wire 1 2 sm_tvalid $end
$var wire 32 3 sm_tdata [31:0] $end
$var wire 1 4 sm_tlast $end
$var reg 1 5 axis_clk $end
$var reg 1 6 axis_rst_n $end
$var wire 4 7 tap_WE [3:0] $end
$var wire 1 8 tap_EN $end
$var wire 32 9 tap_Di [31:0] $end
$var wire 12 : tap_A [11:0] $end
$var wire 32 ; tap_Do [31:0] $end
$var wire 4 < data_WE [3:0] $end
$var wire 1 = data_EN $end
$var wire 32 > data_Di [31:0] $end
$var wire 12 ? data_A [11:0] $end
$var wire 32 @ data_Do [31:0] $end
$var reg 32 A data_length [31:0] $end
$var integer 32 B Din [31:0] $end
$var integer 32 C golden [31:0] $end
$var integer 32 D input_data [31:0] $end
$var integer 32 E golden_data [31:0] $end
$var integer 32 F m [31:0] $end
$var integer 32 G i [31:0] $end
$var integer 32 H k [31:0] $end
$var reg 1 I error $end
$var reg 1 J error_coef $end
$var integer 32 K timeout [31:0] $end
$scope module fir_DUT $end
$var wire 12 L awaddr [11:0] $end
$var wire 1 M awvalid $end
$var wire 1 ! awready $end
$var wire 1 N wvalid $end
$var wire 1 " wready $end
$var wire 32 O wdata [31:0] $end
$var wire 12 P araddr [11:0] $end
$var wire 1 Q arvalid $end
$var wire 1 ' arready $end
$var wire 1 + rvalid $end
$var wire 1 R rready $end
$var wire 32 , rdata [31:0] $end
$var wire 1 S ss_tvalid $end
$var wire 1 0 ss_tready $end
$var wire 32 T ss_tdata [31:0] $end
$var wire 1 U ss_tlast $end
$var wire 1 2 sm_tvalid $end
$var wire 1 V sm_tready $end
$var wire 32 3 sm_tdata [31:0] $end
$var wire 1 4 sm_tlast $end
$var wire 4 7 tap_WE [3:0] $end
$var wire 1 8 tap_EN $end
$var wire 32 9 tap_Di [31:0] $end
$var wire 12 : tap_A [11:0] $end
$var wire 32 ; tap_Do [31:0] $end
$var wire 4 < data_WE [3:0] $end
$var wire 1 = data_EN $end
$var wire 32 > data_Di [31:0] $end
$var wire 12 ? data_A [11:0] $end
$var wire 32 @ data_Do [31:0] $end
$var wire 1 W axis_clk $end
$var wire 1 X axis_rst_n $end
$var integer 32 Y \genblk1.i  [31:0] $end
$var reg 32 Z \genblk1.ap_ctrl_reg  [31:0] $end
$var reg 32 [ \genblk1.data_length_reg  [31:0] $end
$var reg 3 \ \genblk1.state  [2:0] $end
$var reg 3 ] \genblk1.next_state  [2:0] $end
$var reg 2 ^ \genblk1.fir_state  [1:0] $end
$var reg 2 _ \genblk1.fir_next_state  [1:0] $end
$var reg 32 ` \genblk1.sum  [31:0] $end
$var reg 4 a \genblk1.cnt  [3:0] $end
$var reg 4 b \genblk1.write_ptr  [3:0] $end
$var wire 4 c \genblk1.read_ptr  [3:0] $end
$var reg 1 d \genblk1.last  $end
$upscope $end
$scope module tap_RAM $end
$var wire 1 e CLK $end
$var wire 4 7 WE [3:0] $end
$var wire 1 8 EN $end
$var wire 32 9 Di [31:0] $end
$var wire 32 ; Do [31:0] $end
$var wire 12 : A [11:0] $end
$var reg 12 f r_A [11:0] $end
$upscope $end
$scope module data_RAM $end
$var wire 1 g CLK $end
$var wire 4 < WE [3:0] $end
$var wire 1 = EN $end
$var wire 32 > Di [31:0] $end
$var wire 32 @ Do [31:0] $end
$var wire 12 ? A [11:0] $end
$var reg 12 h r_A [11:0] $end
$upscope $end
$scope task config_write $end
$var reg 12 i addr [11:0] $end
$var reg 32 j data [31:0] $end
$upscope $end
$scope task config_read_check $end
$var reg 12 k addr [11:0] $end
$var reg 32 l exp_data [31:0] $end
$var reg 32 m mask [31:0] $end
$upscope $end
$scope task ss $end
$var reg 32 n in1 [31:0] $end
$upscope $end
$scope task sm $end
$var reg 32 o in2 [31:0] $end
$var reg 32 p pcnt [31:0] $end
$upscope $end
$upscope $end
$enddefinitions $end
#0
$dumpvars
x!
x"
x#
bx $
x%
bx &
x'
x(
x)
bx *
x+
bx ,
x-
bx .
x/
x0
11
x2
bx 3
x4
05
06
bx 7
18
bx 9
bx :
bx ;
bx <
1=
bx >
b0xxxx00 ?
bx @
b1001011000 A
b11111111111111111011000111100000 B
b11111111111111111011000111100001 C
b1 D
b1 E
b1001011000 F
bx G
bx H
0I
xJ
b11110100001001000000 K
bx L
xM
xN
bx O
bx P
xQ
xR
xS
bx T
xU
1V
0W
0X
bx Y
bx Z
bx [
bx \
bx ]
bx ^
bx _
bx `
bx a
bx b
bx c
xd
0e
bx f
0g
bx h
bx i
bx j
bx k
bx l
bx m
bx n
bx o
bx p
$end
#5000
0!
0"
0'
0+
b0 ,
00
02
b0 3
04
15
b0 7
b0 :
b1111 <
b0 >
b0 ?
bx @
b11110100001000111111 K
1W
b100000 Y
b100 Z
b0 [
b0 \
b0xx ]
b0 ^
b0 _
b0 `
b0 a
b0 b
b0 c
0d
1e
bx f
1g
b0xxxx00 h
#10000
05
0W
0e
0g
#15000
x!
0"
0#
0%
x'
0)
x+
bx ,
1-
b1 .
0/
04
15
16
b0 7
bx :
bx ;
b0 >
b100 ?
b0 @
b0 G
0J
b11110100001000111110 K
0M
0N
0Q
1S
b1 T
0U
1W
1X
b100 Z
b0xx \
b0 ]
b0 ^
b1 b
b1 c
1e
b0 f
1g
b0 h
b10000 i
b1001011000 j
b1 n
#20000
05
0W
0e
0g
#25000
0!
0"
1#
b10000 $
1%
b1001011000 &
0'
0+
b0 ,
15
b0 7
b1001011000 9
b0 :
bx ;
b1000 ?
b0 @
b11110100001000111101 K
b10000 L
1M
1N
b1001011000 O
1W
b100 Z
b0 \
b11 ]
b0 ^
b10 b
b10 c
1e
bx f
1g
b100 h
#30000
05
0W
0e
0g
#35000
1!
0"
0'
0+
b0 ,
15
b0 7
b0 :
bx ;
b1100 ?
b0 @
b11110100001000111100 K
1W
b100 Z
b11 \
b100 ]
b0 ^
b11 b
b11 c
1e
b0 f
1g
b1000 h
#40000
05
0W
0e
0g
#45000
0!
1"
0'
0+
b0 ,
15
b0 7
b111111110000 :
b10000 ?
b0 @
b11110100001000111011 K
1W
b100 Z
b100 \
b0 ]
b0 ^
b100 b
b100 c
1e
b0 f
1g
b1100 h
#50000
05
0W
0e
0g
#55000
0!
0"
0#
0%
0'
0+
b0 ,
15
b0 7
b0 :
bx ;
b10100 ?
b0 @
b0 H
b11110100001000111010 K
0M
0N
1W
b1001011000 [
b0 \
b0 ]
b0 ^
b101 b
b101 c
1e
b111111110000 f
1g
b10000 h
b100000 i
b0 j
#60000
05
0W
0e
0g
#65000
1#
b100000 $
1%
b0 &
15
b0 7
b0 9
b0 :
bx ;
b11000 ?
b0 @
b11110100001000111001 K
b100000 L
1M
1N
b0 O
1W
b100 Z
b0 \
b11 ]
b0 ^
b110 b
b110 c
1e
b0 f
1g
b10100 h
#70000
05
0W
0e
0g
#75000
1!
0"
0'
0+
b0 ,
15
b0 7
b0 :
b11100 ?
b0 @
b11110100001000111000 K
1W
b100 Z
b11 \
b100 ]
b0 ^
b111 b
b111 c
1e
b0 f
1g
b11000 h
#80000
05
0W
0e
0g
#85000
0!
1"
0'
0+
b0 ,
15
b1111 7
b0 :
b100000 ?
b0 @
b11110100001000110111 K
1W
b100 Z
b100 \
b0 ]
b0 ^
b1000 b
b1000 c
1e
b0 f
1g
b11100 h
#90000
05
0W
0e
0g
#95000
0!
0"
0#
0%
0'
0+
b0 ,
15
b0 7
b0 :
b0 ;
b100100 ?
b0 @
b1 H
b11110100001000110110 K
0M
0N
1W
b0 \
b0 ]
b0 ^
b1001 b
b1001 c
1e
b0 f
1g
b100000 h
b100100 i
b11111111111111111111111111110110 j
#100000
05
0W
0e
0g
#105000
1#
b100100 $
1%
b11111111111111111111111111110110 &
15
b0 7
b11111111111111111111111111110110 9
b0 :
b101000 ?
b0 @
b11110100001000110101 K
b100100 L
1M
1N
b11111111111111111111111111110110 O
1W
b100 Z
b0 \
b11 ]
b0 ^
b1010 b
b1010 c
1e
b0 f
1g
b100100 h
#110000
05
0W
0e
0g
#115000
1!
0"
0'
0+
b0 ,
15
b0 7
b0 :
b0 ?
b0 @
b11110100001000110100 K
1W
b100 Z
b11 \
b100 ]
b0 ^
b0 b
b0 c
1e
b0 f
1g
b101000 h
#120000
05
0W
0e
0g
#125000
0!
1"
0'
0+
b0 ,
15
b1111 7
b100 :
b100 ?
b0 @
b11110100001000110011 K
1W
b100 Z
b100 \
b0 ]
b0 ^
b1 b
b1 c
1e
b0 f
1g
b0 h
#130000
05
0W
0e
0g
#135000
0!
0"
0#
0%
0'
0+
b0 ,
15
b0 7
b0 :
b11111111111111111111111111110110 ;
b1000 ?
b0 @
b10 H
b11110100001000110010 K
0M
0N
1W
b0 \
b0 ]
b0 ^
b10 b
b10 c
1e
b100 f
1g
b100 h
b101000 i
b11111111111111111111111111110111 j
#140000
05
0W
0e
0g
#145000
1#
b101000 $
1%
b11111111111111111111111111110111 &
b0 ,
15
b0 7
b11111111111111111111111111110111 9
b0 :
b0 ;
b1100 ?
b0 @
b11110100001000110001 K
b101000 L
1M
1N
b11111111111111111111111111110111 O
1W
b100 Z
b0 \
b11 ]
b0 ^
b11 b
b11 c
1e
b0 f
1g
b1000 h
#150000
05
0W
0e
0g
#155000
1!
0"
0'
0+
b0 ,
15
b0 7
b0 :
b10000 ?
b0 @
b11110100001000110000 K
1W
b100 Z
b11 \
b100 ]
b0 ^
b100 b
b100 c
1e
b0 f
1g
b1100 h
#160000
05
0W
0e
0g
#165000
0!
1"
0'
0+
b0 ,
15
b1111 7
b1000 :
b10100 ?
b0 @
b11110100001000101111 K
1W
b100 Z
b100 \
b0 ]
b0 ^
b101 b
b101 c
1e
b0 f
1g
b10000 h
#170000
05
0W
0e
0g
#175000
0!
0"
0#
0%
0'
0+
b0 ,
15
b0 7
b0 :
b11111111111111111111111111110111 ;
b11000 ?
b0 @
b11 H
b11110100001000101110 K
0M
0N
1W
b0 \
b0 ]
b0 ^
b110 b
b110 c
1e
b1000 f
1g
b10100 h
b101100 i
b10111 j
#180000
05
0W
0e
0g
#185000
1#
b101100 $
1%
b10111 &
b0 ,
15
b0 7
b10111 9
b0 :
b0 ;
b11100 ?
b0 @
b11110100001000101101 K
b101100 L
1M
1N
b10111 O
1W
b100 Z
b0 \
b11 ]
b0 ^
b111 b
b111 c
1e
b0 f
1g
b11000 h
#190000
05
0W
0e
0g
#195000
1!
0"
0'
0+
b0 ,
15
b0 7
b0 :
b100000 ?
b0 @
b11110100001000101100 K
1W
b100 Z
b11 \
b100 ]
b0 ^
b1000 b
b1000 c
1e
b0 f
1g
b11100 h
#200000
05
0W
0e
0g
#205000
0!
1"
0'
0+
b0 ,
15
b1111 7
b1100 :
b100100 ?
b0 @
b11110100001000101011 K
1W
b100 Z
b100 \
b0 ]
b0 ^
b1001 b
b1001 c
1e
b0 f
1g
b100000 h
#210000
05
0W
0e
0g
#215000
0!
0"
0#
0%
0'
0+
b0 ,
15
b0 7
b0 :
b10111 ;
b101000 ?
b0 @
b100 H
b11110100001000101010 K
0M
0N
1W
b0 \
b0 ]
b0 ^
b1010 b
b1010 c
1e
b1100 f
1g
b100100 h
b110000 i
b111000 j
#220000
05
0W
0e
0g
#225000
1#
b110000 $
1%
b111000 &
b0 ,
15
b0 7
b111000 9
b0 :
b0 ;
b0 ?
b0 @
b11110100001000101001 K
b110000 L
1M
1N
b111000 O
1W
b100 Z
b0 \
b11 ]
b0 ^
b0 b
b0 c
1e
b0 f
1g
b101000 h
#230000
05
0W
0e
0g
#235000
1!
0"
0'
0+
b0 ,
15
b0 7
b0 :
b100 ?
b0 @
b11110100001000101000 K
1W
b100 Z
b11 \
b100 ]
b0 ^
b1 b
b1 c
1e
b0 f
1g
b0 h
#240000
05
0W
0e
0g
#245000
0!
1"
0'
0+
b0 ,
15
b1111 7
b10000 :
b1000 ?
b0 @
b11110100001000100111 K
1W
b100 Z
b100 \
b0 ]
b0 ^
b10 b
b10 c
1e
b0 f
1g
b100 h
#250000
05
0W
0e
0g
#255000
0!
0"
0#
0%
0'
0+
b0 ,
15
b0 7
b0 :
b111000 ;
b1100 ?
b0 @
b101 H
b11110100001000100110 K
0M
0N
1W
b0 \
b0 ]
b0 ^
b11 b
b11 c
1e
b10000 f
1g
b1000 h
b110100 i
b111111 j
#260000
05
0W
0e
0g
#265000
1#
b110100 $
1%
b111111 &
b0 ,
15
b0 7
b111111 9
b0 :
b0 ;
b10000 ?
b0 @
b11110100001000100101 K
b110100 L
1M
1N
b111111 O
1W
b100 Z
b0 \
b11 ]
b0 ^
b100 b
b100 c
1e
b0 f
1g
b1100 h
#270000
05
0W
0e
0g
#275000
1!
0"
0'
0+
b0 ,
15
b0 7
b0 :
b10100 ?
b0 @
b11110100001000100100 K
1W
b100 Z
b11 \
b100 ]
b0 ^
b101 b
b101 c
1e
b0 f
1g
b10000 h
#280000
05
0W
0e
0g
#285000
0!
1"
0'
0+
b0 ,
15
b1111 7
b10100 :
b11000 ?
b0 @
b11110100001000100011 K
1W
b100 Z
b100 \
b0 ]
b0 ^
b110 b
b110 c
1e
b0 f
1g
b10100 h
#290000
05
0W
0e
0g
#295000
0!
0"
0#
0%
0'
0+
b0 ,
15
b0 7
b0 :
b111111 ;
b11100 ?
b0 @
b110 H
b11110100001000100010 K
0M
0N
1W
b0 \
b0 ]
b0 ^
b111 b
b111 c
1e
b10100 f
1g
b11000 h
b111000 i
b111000 j
#300000
05
0W
0e
0g
#305000
1#
b111000 $
1%
b111000 &
b0 ,
15
b0 7
b111000 9
b0 :
b0 ;
b100000 ?
b0 @
b11110100001000100001 K
b111000 L
1M
1N
b111000 O
1W
b100 Z
b0 \
b11 ]
b0 ^
b1000 b
b1000 c
1e
b0 f
1g
b11100 h
#310000
05
0W
0e
0g
#315000
1!
0"
0'
0+
b0 ,
15
b0 7
b0 :
b100100 ?
b0 @
b11110100001000100000 K
1W
b100 Z
b11 \
b100 ]
b0 ^
b1001 b
b1001 c
1e
b0 f
1g
b100000 h
#320000
05
0W
0e
0g
#325000
0!
1"
0'
0+
b0 ,
15
b1111 7
b11000 :
b101000 ?
b0 @
b11110100001000011111 K
1W
b100 Z
b100 \
b0 ]
b0 ^
b1010 b
b1010 c
1e
b0 f
1g
b100100 h
#330000
05
0W
0e
0g
#335000
0!
0"
0#
0%
0'
0+
b0 ,
15
b0 7
b0 :
b111000 ;
b0 ?
b0 @
b111 H
b11110100001000011110 K
0M
0N
1W
b0 \
b0 ]
b0 ^
b0 b
b0 c
1e
b11000 f
1g
b101000 h
b111100 i
b10111 j
#340000
05
0W
0e
0g
#345000
1#
b111100 $
1%
b10111 &
b0 ,
15
b0 7
b10111 9
b0 :
b0 ;
b100 ?
b0 @
b11110100001000011101 K
b111100 L
1M
1N
b10111 O
1W
b100 Z
b0 \
b11 ]
b0 ^
b1 b
b1 c
1e
b0 f
1g
b0 h
#350000
05
0W
0e
0g
#355000
1!
0"
0'
0+
b0 ,
15
b0 7
b0 :
b1000 ?
b0 @
b11110100001000011100 K
1W
b100 Z
b11 \
b100 ]
b0 ^
b10 b
b10 c
1e
b0 f
1g
b100 h
#360000
05
0W
0e
0g
#365000
0!
1"
0'
0+
b0 ,
15
b1111 7
b11100 :
b1100 ?
b0 @
b11110100001000011011 K
1W
b100 Z
b100 \
b0 ]
b0 ^
b11 b
b11 c
1e
b0 f
1g
b1000 h
#370000
05
0W
0e
0g
#375000
0!
0"
0#
0%
0'
0+
b0 ,
15
b0 7
b0 :
b10111 ;
b10000 ?
b0 @
b1000 H
b11110100001000011010 K
0M
0N
1W
b0 \
b0 ]
b0 ^
b100 b
b100 c
1e
b11100 f
1g
b1100 h
b1000000 i
b11111111111111111111111111110111 j
#380000
05
0W
0e
0g
#385000
1#
b1000000 $
1%
b11111111111111111111111111110111 &
b0 ,
15
b0 7
b11111111111111111111111111110111 9
b0 :
b0 ;
b10100 ?
b0 @
b11110100001000011001 K
b1000000 L
1M
1N
b11111111111111111111111111110111 O
1W
b100 Z
b0 \
b11 ]
b0 ^
b101 b
b101 c
1e
b0 f
1g
b10000 h
#390000
05
0W
0e
0g
#395000
1!
0"
0'
0+
b0 ,
15
b0 7
b0 :
b11000 ?
b0 @
b11110100001000011000 K
1W
b100 Z
b11 \
b100 ]
b0 ^
b110 b
b110 c
1e
b0 f
1g
b10100 h
#400000
05
0W
0e
0g
#405000
0!
1"
0'
0+
b0 ,
15
b1111 7
b100000 :
b11100 ?
b0 @
b11110100001000010111 K
1W
b100 Z
b100 \
b0 ]
b0 ^
b111 b
b111 c
1e
b0 f
1g
b11000 h
#410000
05
0W
0e
0g
#415000
0!
0"
0#
0%
0'
0+
b0 ,
15
b0 7
b0 :
b11111111111111111111111111110111 ;
b100000 ?
b0 @
b1001 H
b11110100001000010110 K
0M
0N
1W
b0 \
b0 ]
b0 ^
b1000 b
b1000 c
1e
b100000 f
1g
b11100 h
b1000100 i
b11111111111111111111111111110110 j
#420000
05
0W
0e
0g
#425000
1#
b1000100 $
1%
b11111111111111111111111111110110 &
b0 ,
15
b0 7
b11111111111111111111111111110110 9
b0 :
b0 ;
b100100 ?
b0 @
b11110100001000010101 K
b1000100 L
1M
1N
b11111111111111111111111111110110 O
1W
b100 Z
b0 \
b11 ]
b0 ^
b1001 b
b1001 c
1e
b0 f
1g
b100000 h
#430000
05
0W
0e
0g
#435000
1!
0"
0'
0+
b0 ,
15
b0 7
b0 :
b101000 ?
b0 @
b11110100001000010100 K
1W
b100 Z
b11 \
b100 ]
b0 ^
b1010 b
b1010 c
1e
b0 f
1g
b100100 h
#440000
05
0W
0e
0g
#445000
0!
1"
0'
0+
b0 ,
15
b1111 7
b100100 :
b0 ?
b0 @
b11110100001000010011 K
1W
b100 Z
b100 \
b0 ]
b0 ^
b0 b
b0 c
1e
b0 f
1g
b101000 h
#450000
05
0W
0e
0g
#455000
0!
0"
0#
0%
0'
0+
b0 ,
15
b0 7
b0 :
b11111111111111111111111111110110 ;
b100 ?
b0 @
b1010 H
b11110100001000010010 K
0M
0N
1W
b0 \
b0 ]
b0 ^
b1 b
b1 c
1e
b100100 f
1g
b0 h
b1001000 i
b0 j
#460000
05
0W
0e
0g
#465000
1#
b1001000 $
1%
b0 &
b0 ,
15
b0 7
b0 9
b0 :
b0 ;
b1000 ?
b0 @
b11110100001000010001 K
b1001000 L
1M
1N
b0 O
1W
b100 Z
b0 \
b11 ]
b0 ^
b10 b
b10 c
1e
b0 f
1g
b100 h
#470000
05
0W
0e
0g
#475000
1!
0"
0'
0+
b0 ,
15
b0 7
b0 :
b1100 ?
b0 @
b11110100001000010000 K
1W
b100 Z
b11 \
b100 ]
b0 ^
b11 b
b11 c
1e
b0 f
1g
b1000 h
#480000
05
0W
0e
0g
#485000
0!
1"
0'
0+
b0 ,
15
b1111 7
b101000 :
b10000 ?
b0 @
b11110100001000001111 K
1W
b100 Z
b100 \
b0 ]
b0 ^
b100 b
b100 c
1e
b0 f
1g
b1100 h
#490000
05
0W
0e
0g
#495000
0!
0"
0#
0%
0'
0)
0+
b0 ,
15
b0 7
b0 :
b0 ;
b10100 ?
b0 @
b0 H
b11110100001000001110 K
0M
0N
1W
b0 \
b0 ]
b0 ^
b101 b
b101 c
1e
b101000 f
1g
b10000 h
b100000 k
b0 l
b11111111111111111111111111111111 m
#500000
05
0W
0e
0g
#505000
1(
1)
b100000 *
b0 ,
15
b0 :
b0 ;
b11000 ?
b0 @
b11110100001000001101 K
b100000 P
1Q
1R
1W
b100 Z
b0 \
b1 ]
b0 ^
b110 b
b110 c
1e
b0 f
1g
b10100 h
#510000
05
0W
0e
0g
#515000
0!
0"
1'
0+
b0 ,
15
b0 7
b0 :
b11100 ?
b0 @
b11110100001000001100 K
1W
b100 Z
b1 \
b10 ]
b0 ^
b111 b
b111 c
1e
b0 f
1g
b11000 h
#520000
05
0W
0e
0g
#525000
0!
0"
0'
1+
b0 ,
15
b0 7
b0 :
b100000 ?
b0 @
b11110100001000001011 K
1W
b100 Z
b10 \
b0 ]
b0 ^
b1000 b
b1000 c
1e
b0 f
1g
b11100 h
#530000
05
0W
0e
0g
#535000
0!
0"
0'
0)
0+
b0 ,
15
b0 7
b0 :
b100100 ?
b0 @
b1 H
b11110100001000001010 K
0Q
1W
b100 Z
b0 \
b0 ]
b0 ^
b1001 b
b1001 c
1e
b0 f
1g
b100000 h
b100100 k
b11111111111111111111111111110110 l
b11111111111111111111111111111111 m
#540000
05
0W
0e
0g
#545000
1(
1)
b100100 *
b0 ,
15
b0 :
b101000 ?
b0 @
b11110100001000001001 K
b100100 P
1Q
1W
b100 Z
b0 \
b1 ]
b0 ^
b1010 b
b1010 c
1e
b0 f
1g
b100100 h
#550000
05
0W
0e
0g
#555000
0!
0"
1'
0+
b0 ,
15
b0 7
b100 :
b0 ?
b0 @
b11110100001000001000 K
1W
b100 Z
b1 \
b10 ]
b0 ^
b0 b
b0 c
1e
b0 f
1g
b101000 h
#560000
05
0W
0e
0g
#565000
0!
0"
0'
1+
b11111111111111111111111111110110 ,
15
b0 7
b0 :
b11111111111111111111111111110110 ;
b100 ?
b0 @
b11110100001000000111 K
1W
b100 Z
b10 \
b0 ]
b0 ^
b1 b
b1 c
1e
b100 f
1g
b0 h
#570000
05
0W
0e
0g
#575000
0!
0"
0'
0)
0+
b0 ,
15
b0 7
b0 :
b0 ;
b1000 ?
b0 @
b10 H
b11110100001000000110 K
0Q
1W
b100 Z
b0 \
b0 ]
b0 ^
b10 b
b10 c
1e
b0 f
1g
b100 h
b101000 k
b11111111111111111111111111110111 l
b11111111111111111111111111111111 m
#580000
05
0W
0e
0g
#585000
1(
1)
b101000 *
b0 ,
15
b0 :
b1100 ?
b0 @
b11110100001000000101 K
b101000 P
1Q
1W
b100 Z
b0 \
b1 ]
b0 ^
b11 b
b11 c
1e
b0 f
1g
b1000 h
#590000
05
0W
0e
0g
#595000
0!
0"
1'
0+
b0 ,
15
b0 7
b1000 :
b10000 ?
b0 @
b11110100001000000100 K
1W
b100 Z
b1 \
b10 ]
b0 ^
b100 b
b100 c
1e
b0 f
1g
b1100 h
#600000
05
0W
0e
0g
#605000
0!
0"
0'
1+
b11111111111111111111111111110111 ,
15
b0 7
b0 :
b11111111111111111111111111110111 ;
b10100 ?
b0 @
b11110100001000000011 K
1W
b100 Z
b10 \
b0 ]
b0 ^
b101 b
b101 c
1e
b1000 f
1g
b10000 h
#610000
05
0W
0e
0g
#615000
0!
0"
0'
0)
0+
b0 ,
15
b0 7
b0 :
b0 ;
b11000 ?
b0 @
b11 H
b11110100001000000010 K
0Q
1W
b100 Z
b0 \
b0 ]
b0 ^
b110 b
b110 c
1e
b0 f
1g
b10100 h
b101100 k
b10111 l
b11111111111111111111111111111111 m
#620000
05
0W
0e
0g
#625000
1(
1)
b101100 *
b0 ,
15
b0 :
b11100 ?
b0 @
b11110100001000000001 K
b101100 P
1Q
1W
b100 Z
b0 \
b1 ]
b0 ^
b111 b
b111 c
1e
b0 f
1g
b11000 h
#630000
05
0W
0e
0g
#635000
0!
0"
1'
0+
b0 ,
15
b0 7
b1100 :
b100000 ?
b0 @
b11110100001000000000 K
1W
b100 Z
b1 \
b10 ]
b0 ^
b1000 b
b1000 c
1e
b0 f
1g
b11100 h
#640000
05
0W
0e
0g
#645000
0!
0"
0'
1+
b10111 ,
15
b0 7
b0 :
b10111 ;
b100100 ?
b0 @
b11110100000111111111 K
1W
b100 Z
b10 \
b0 ]
b0 ^
b1001 b
b1001 c
1e
b1100 f
1g
b100000 h
#650000
05
0W
0e
0g
#655000
0!
0"
0'
0)
0+
b0 ,
15
b0 7
b0 :
b0 ;
b101000 ?
b0 @
b100 H
b11110100000111111110 K
0Q
1W
b100 Z
b0 \
b0 ]
b0 ^
b1010 b
b1010 c
1e
b0 f
1g
b100100 h
b110000 k
b111000 l
b11111111111111111111111111111111 m
#660000
05
0W
0e
0g
#665000
1(
1)
b110000 *
b0 ,
15
b0 :
b0 ?
b0 @
b11110100000111111101 K
b110000 P
1Q
1W
b100 Z
b0 \
b1 ]
b0 ^
b0 b
b0 c
1e
b0 f
1g
b101000 h
#670000
05
0W
0e
0g
#675000
0!
0"
1'
0+
b0 ,
15
b0 7
b10000 :
b100 ?
b0 @
b11110100000111111100 K
1W
b100 Z
b1 \
b10 ]
b0 ^
b1 b
b1 c
1e
b0 f
1g
b0 h
#680000
05
0W
0e
0g
#685000
0!
0"
0'
1+
b111000 ,
15
b0 7
b0 :
b111000 ;
b1000 ?
b0 @
b11110100000111111011 K
1W
b100 Z
b10 \
b0 ]
b0 ^
b10 b
b10 c
1e
b10000 f
1g
b100 h
#690000
05
0W
0e
0g
#695000
0!
0"
0'
0)
0+
b0 ,
15
b0 7
b0 :
b0 ;
b1100 ?
b0 @
b101 H
b11110100000111111010 K
0Q
1W
b100 Z
b0 \
b0 ]
b0 ^
b11 b
b11 c
1e
b0 f
1g
b1000 h
b110100 k
b111111 l
b11111111111111111111111111111111 m
#700000
05
0W
0e
0g
#705000
1(
1)
b110100 *
b0 ,
15
b0 :
b10000 ?
b0 @
b11110100000111111001 K
b110100 P
1Q
1W
b100 Z
b0 \
b1 ]
b0 ^
b100 b
b100 c
1e
b0 f
1g
b1100 h
#710000
05
0W
0e
0g
#715000
0!
0"
1'
0+
b0 ,
15
b0 7
b10100 :
b10100 ?
b0 @
b11110100000111111000 K
1W
b100 Z
b1 \
b10 ]
b0 ^
b101 b
b101 c
1e
b0 f
1g
b10000 h
#720000
05
0W
0e
0g
#725000
0!
0"
0'
1+
b111111 ,
15
b0 7
b0 :
b111111 ;
b11000 ?
b0 @
b11110100000111110111 K
1W
b100 Z
b10 \
b0 ]
b0 ^
b110 b
b110 c
1e
b10100 f
1g
b10100 h
#730000
05
0W
0e
0g
#735000
0!
0"
0'
0)
0+
b0 ,
15
b0 7
b0 :
b0 ;
b11100 ?
b0 @
b110 H
b11110100000111110110 K
0Q
1W
b100 Z
b0 \
b0 ]
b0 ^
b111 b
b111 c
1e
b0 f
1g
b11000 h
b111000 k
b111000 l
b11111111111111111111111111111111 m
#740000
05
0W
0e
0g
#745000
1(
1)
b111000 *
b0 ,
15
b0 :
b100000 ?
b0 @
b11110100000111110101 K
b111000 P
1Q
1W
b100 Z
b0 \
b1 ]
b0 ^
b1000 b
b1000 c
1e
b0 f
1g
b11100 h
#750000
05
0W
0e
0g
#755000
0!
0"
1'
0+
b0 ,
15
b0 7
b11000 :
b100100 ?
b0 @
b11110100000111110100 K
1W
b100 Z
b1 \
b10 ]
b0 ^
b1001 b
b1001 c
1e
b0 f
1g
b100000 h
#760000
05
0W
0e
0g
#765000
0!
0"
0'
1+
b111000 ,
15
b0 7
b0 :
b111000 ;
b101000 ?
b0 @
b11110100000111110011 K
1W
b100 Z
b10 \
b0 ]
b0 ^
b1010 b
b1010 c
1e
b11000 f
1g
b100100 h
#770000
05
0W
0e
0g
#775000
0!
0"
0'
0)
0+
b0 ,
15
b0 7
b0 :
b0 ;
b0 ?
b0 @
b111 H
b11110100000111110010 K
0Q
1W
b100 Z
b0 \
b0 ]
b0 ^
b0 b
b0 c
1e
b0 f
1g
b101000 h
b111100 k
b10111 l
b11111111111111111111111111111111 m
#780000
05
0W
0e
0g
#785000
1(
1)
b111100 *
b0 ,
15
b0 :
b100 ?
b0 @
b11110100000111110001 K
b111100 P
1Q
1W
b100 Z
b0 \
b1 ]
b0 ^
b1 b
b1 c
1e
b0 f
1g
b0 h
#790000
05
0W
0e
0g
#795000
0!
0"
1'
0+
b0 ,
15
b0 7
b11100 :
b1000 ?
b0 @
b11110100000111110000 K
1W
b100 Z
b1 \
b10 ]
b0 ^
b10 b
b10 c
1e
b0 f
1g
b100 h
#800000
05
0W
0e
0g
#805000
0!
0"
0'
1+
b10111 ,
15
b0 7
b0 :
b10111 ;
b1100 ?
b0 @
b11110100000111101111 K
1W
b100 Z
b10 \
b0 ]
b0 ^
b11 b
b11 c
1e
b11100 f
1g
b1000 h
#810000
05
0W
0e
0g
#815000
0!
0"
0'
0)
0+
b0 ,
15
b0 7
b0 :
b0 ;
b10000 ?
b0 @
b1000 H
b11110100000111101110 K
0Q
1W
b100 Z
b0 \
b0 ]
b0 ^
b100 b
b100 c
1e
b0 f
1g
b1100 h
b1000000 k
b11111111111111111111111111110111 l
b11111111111111111111111111111111 m
#820000
05
0W
0e
0g
#825000
1(
1)
b1000000 *
b0 ,
15
b0 :
b10100 ?
b0 @
b11110100000111101101 K
b1000000 P
1Q
1W
b100 Z
b0 \
b1 ]
b0 ^
b101 b
b101 c
1e
b0 f
1g
b10000 h
#830000
05
0W
0e
0g
#835000
0!
0"
1'
0+
b0 ,
15
b0 7
b100000 :
b11000 ?
b0 @
b11110100000111101100 K
1W
b100 Z
b1 \
b10 ]
b0 ^
b110 b
b110 c
1e
b0 f
1g
b10100 h
#840000
05
0W
0e
0g
#845000
0!
0"
0'
1+
b11111111111111111111111111110111 ,
15
b0 7
b0 :
b11111111111111111111111111110111 ;
b11100 ?
b0 @
b11110100000111101011 K
1W
b100 Z
b10 \
b0 ]
b0 ^
b111 b
b111 c
1e
b100000 f
1g
b11000 h
